<?xml version="1.0" encoding="utf-8"?>
<!-- Generator: Adobe Illustrator 24.2.3, SVG Export Plug-In . SVG Version: 6.00 Build 0)  -->
<svg version="1.1" id="Layer_1" xmlns="http://www.w3.org/2000/svg" xmlns:xlink="http://www.w3.org/1999/xlink" x="0px" y="0px"
	 viewBox="0 0 66.4 55.3" style="enable-background:new 0 0 66.4 55.3;" xml:space="preserve">
<g>
	<path d="M48.6,3.5H17.8C8,3.5,0,11.5,0,21.3V34c0,9.8,8,17.8,17.8,17.8h30.8c9.8,0,17.8-8,17.8-17.8V21.3
		C66.4,11.5,58.5,3.5,48.6,3.5z M64.4,34c0,8.7-7.1,15.8-15.8,15.8H17.8C9.1,49.8,2,42.7,2,34V21.3C2,12.6,9.1,5.5,17.8,5.5h30.8
		c8.7,0,15.8,7.1,15.8,15.8V34z"/>
	<path d="M24.9,38.5l18.9-11l-18.9-11V38.5z M26.9,20l12.9,7.5L26.9,35V20z"/>
</g>
</svg>
