<?xml version="1.0" encoding="utf-8"?>
<!-- Generator: Adobe Illustrator 24.2.3, SVG Export Plug-In . SVG Version: 6.00 Build 0)  -->
<svg version="1.1" id="Layer_1" xmlns="http://www.w3.org/2000/svg" xmlns:xlink="http://www.w3.org/1999/xlink" x="0px" y="0px"
	 viewBox="0 0 19.4 20.2" style="enable-background:new 0 0 19.4 20.2;" xml:space="preserve">
<style type="text/css">
	.st0{fill:#FFFFFF;}
</style>
<path class="st0" d="M15.4,0H4C1.8,0,0,1.8,0,4v9.5c0,2.2,1.8,4,4,4h0.9L2.6,19v1.2h14.1V19l-2.3-1.5h0.9c2.2,0,4-1.8,4-4V4
	C19.4,1.8,17.6,0,15.4,0z M7.8,13.2c0-1,0.8-1.9,1.9-1.9s1.9,0.8,1.9,1.9S10.7,15,9.7,15S7.8,14.2,7.8,13.2z M16.9,8.2
	c0,0.9-0.7,1.6-1.6,1.6H4.1C3.2,9.7,2.5,9,2.5,8.2V4.3c0-0.9,0.7-1.6,1.6-1.6h11.2c0.9,0,1.6,0.7,1.6,1.6V8.2z"/>
</svg>
